…
group_by
========================================================

```r
grouped_ds <- dplyr::group_by(mtcars[,9:11], am, gear)
grouped_ds
```

```
Source: local data frame [32 x 3]
Groups: am, gear [4]

      am  gear  carb
*  <dbl> <dbl> <dbl>
1      1     4     4
2      1     4     4
3      1     4     1
4      0     3     1
5      0     3     2
6      0     3     1
7      0     3     4
8      0     4     2
9      0     4     2
10     0     4     4
# ... with 22 more rows
```
…
